{
  "$schema": "https://aka.ms/terminal-profiles-schema",
  "defaultProfile": "{a5a97cb8-8961-5535-816d-772efe0c6a3f}",
  "profiles": [
    {
      "guid": "{61c54bbd-c2c6-5271-96e7-009a87ff44bf}",
      "name": "Windows PowerShell",
      "commandline": "powershell.exe",
      "hidden": false
    },
    {
      "guid": "{0caa0dad-35be-5f56-a8ff-afceeeaa6101}",
      "name": "cmd",
      "commandline": "cmd.exe",
      "hidden": false
    },
    {
      "guid": "{a5a97cb8-8961-5535-816d-772efe0c6a3f}",
      "hidden": false,
      "name": "Arch",
      "scrollbarState": "visible",
      "historySize": 0,
      "source": "Windows.Terminal.Wsl",
      "colorScheme": "One Half Dark",
      "fontFace": "Ubuntu Mono derivative Powerline"
    },
    {
      "guid": "{b453ae62-4e3d-5e58-b989-0a998ec441b8}",
      "hidden": false,
      "name": "Azure Cloud Shell",
      "source": "Windows.Terminal.Azure"
    }
  ],
  "schemes": [],
  "keybindings": [
    {
    "command": "copy",
    "keys": [ "ctrl+c" ]
    },
    {
    "command": "paste",
    "keys": [ "ctrl+v" ]
    }
    ]
}
